…
Our purpose is to look at daily step count, which means we need to sum up the all the intervals for each date into one total. We will also filter out missing data points (as per assignment instructions).


```r
library(ggplot2)
library(dplyr)

filtered_data <- data %>% filter(!is.na(steps)) %>% group_by(date)
total_steps <- summarise(filtered_data, total_steps = sum(steps))
total_steps
```

```
## # A tibble: 53 x 2
##          date total_steps
##        <fctr>       <int>
## 1  2012-10-02         126
## 2  2012-10-03       11352
## 3  2012-10-04       12116
## 4  2012-10-05       13294
## 5  2012-10-06       15420
## 6  2012-10-07       11015
## 7  2012-10-09       12811
## 8  2012-10-10        9900
## 9  2012-10-11       10304
## 10 2012-10-12       17382
## # ... with 43 more rows
```
…
Although the histogram is a little sparse, it does look like a reasonably balanced distribution. The mean and median being almost the same reinforces this observation.

## Average daily activity pattern

Now we need to group our data by 5-minute intervals so we can plot a time series of the average steps taken during each 5-minute interval.


```r
filtered_data <- data %>% filter(!is.na(steps)) %>% group_by(interval)
interval_avg <- summarise(filtered_data, avg = mean(steps))
interval_avg
```

```
## # A tibble: 288 x 2
##    interval       avg
##       <int>     <dbl>
## 1         0 1.7169811
## 2         5 0.3396226
## 3        10 0.1320755
## 4        15 0.1509434
## 5        20 0.0754717
## 6        25 2.0943396
## 7        30 0.5283019
## 8        35 0.8679245
## 9        40 0.0000000
## 10       45 1.4716981
## # ... with 278 more rows
```
…
